[gd_scene load_steps=4 format=2]

[ext_resource path="res://World/Abstract/UI/SceneHandlerSingleton/scene_handler.gd" type="Script" id=1]
[ext_resource path="res://World/Abstract/Juhani Junkala [Retro Game Music Pack] Ending.wav" type="AudioStream" id=2]
[ext_resource path="res://World/Sounds/186669__fordps3__computer-boop.wav" type="AudioStream" id=3]

[node name="SceneHandler" type="Node"]
pause_mode = 2
script = ExtResource( 1 )

[node name="Tween" type="Tween" parent="."]

[node name="CanvasModulate" type="CanvasModulate" parent="."]

[node name="Music" type="AudioStreamPlayer" parent="."]
stream = ExtResource( 2 )
autoplay = true

[node name="Button" type="AudioStreamPlayer" parent="."]
stream = ExtResource( 3 )
