[gd_scene load_steps=4 format=2]

[ext_resource path="res://Objects/Enemy/TurretGroups/small_group.gd" type="Script" id=1]
[ext_resource path="res://Objects/Enemy/TurretGroups/Turret/Turret.tscn" type="PackedScene" id=2]
[ext_resource path="res://World/Sounds/184650__isaac200000__cannon1.wav" type="AudioStream" id=3]

[node name="TurretGroupSmall" type="Node2D"]
script = ExtResource( 1 )

[node name="Turret" parent="." instance=ExtResource( 2 )]
position = Vector2( 0, 220 )
rotation = 3.14159

[node name="Turret2" parent="." instance=ExtResource( 2 )]
rotation = 3.66519

[node name="Turret3" parent="." instance=ExtResource( 2 )]
position = Vector2( 175, 220 )
rotation = 2.61799

[node name="Turret4" parent="." instance=ExtResource( 2 )]
position = Vector2( 175, -650 )
rotation = 0.523599

[node name="Turret5" parent="." instance=ExtResource( 2 )]
position = Vector2( 0, -650 )

[node name="Turret6" parent="." instance=ExtResource( 2 )]
position = Vector2( -175, -650 )
rotation = 5.75959

[node name="Timer" type="Timer" parent="."]
process_mode = 0
wait_time = 3.0

[node name="AudioStreamPlayer2D" type="AudioStreamPlayer2D" parent="."]
stream = ExtResource( 3 )
attenuation = 0.019915
